cli_monitor_func_ctry.c:161:13:CLI_ReadGPInputs	40	static
cli_monitor_func_ctry.c:189:13:CLI_MonitorBoardVoltages	40	static
cli_monitor_func_ctry.c:233:13:CLI_MonitorMisc	24	static
cli_monitor_func_ctry.c:268:13:CLI_MonitorMdrvStatus	24	static
cli_monitor_func_ctry.c:285:13:CLI_ReadCurrentConsumption	24	static
cli_monitor_func_ctry.c:309:13:CLI_ReadAccelerationAndCurrent	104	static
cli_monitor_func_ctry.c:353:13:CLI_ReadAccelId	24	static
cli_monitor_func_ctry.c:376:13:CLI_ReadAcceleration	2056	static
cli_monitor_func_ctry.c:419:13:CLI_ReadTemperatureSensors	40	static
