cli_debug_func_ctry.c:113:13:CLI_CTRY_Reset	24	static
cli_debug_func_ctry.c:121:13:CLI_CTRY_CRC_Test	24	static
cli_debug_func_ctry.c:145:13:CLI_RTCWriteTime	24	static
cli_debug_func_ctry.c:187:13:CLI_RTCWriteDate	24	static
cli_debug_func_ctry.c:228:13:CLI_RTCReadTimeDate	24	static
cli_debug_func_ctry.c:286:13:CLI_MdrvSpiWriteRead	64	static
