gipsy_hal_cortex.c:66:6:HAL_NVIC_SetPriorityGrouping	24	static
gipsy_hal_cortex.c:95:6:HAL_NVIC_SetPriority	32	static
gipsy_hal_cortex.c:136:17:nvic_encode_priority	40	static
gipsy_hal_cortex.c:174:6:HAL_NVIC_EnableIRQ	16	static
gipsy_hal_cortex.c:193:10:HAL_SYSTICK_Config	24	static
