gipsy_hal_can.c:295:19:HAL_CAN_Init	16	static
gipsy_hal_can.c:412:26:wait_init_ack	24	static
gipsy_hal_can.c:451:13:config_can_filter	32	static
gipsy_hal_can.c:510:26:can_loopback_test	48	static
gipsy_hal_can.c:564:6:HAL_CAN_Stop	4	static
gipsy_hal_can.c:582:19:HAL_CAN_AddTxMessage	24	static
gipsy_hal_can.c:655:19:HAL_CAN_GetRxMessage	24	static
gipsy_hal_can.c:719:6:HAL_CAN_IRQHandler	16	static
