motor_driver.c:188:6:MDRV_Wake_All	8	static
motor_driver.c:203:14:MDRV_Config	24	static
motor_driver.c:260:6:MDRV_Shut_Down	24	static
motor_driver.c:291:6:MDRV_Activate_Motor	16	static
motor_driver.c:306:14:MDRV_ID_Check	24	static
motor_driver.c:335:13:mdrv_set_pwm_value	16	static
motor_driver.c:377:6:MDRV_SPI_Write	24	static
motor_driver.c:431:7:MDRV_SPI_Read	32	static
motor_driver.c:486:14:mdrv_set_spi_clk	16	static
motor_driver.c:498:14:mdrv_spi_delay	16	static
motor_driver.c:516:13:mdrv_set_cs_pin	24	static
motor_driver.c:546:6:MDRV_Wake_Ctrl	24	static
motor_driver.c:573:6:MDRV_Enable_Ctrl	24	static
