mcp9804.c:86:9:Temperature_Sensors_Config	16	static
mcp9804.c:103:9:Temperaure_Sensors_Read	32	static
mcp9804.c:173:23:Temperature_Sensor_Check_ID	24	static
mcp9804.c:213:16:temperature_sensors_write_all	24	static
mcp9804.c:246:26:mcp9804_write	40	static
mcp9804.c:262:26:mcp9804_read	40	static
