mcu_config_ctry.c:134:6:MCU_Periph_Config	8	static
mcu_config_ctry.c:174:13:system_clock_config	24	static
mcu_config_ctry.c:226:13:mcu_i2c_busses_init	8	static
mcu_config_ctry.c:277:13:mcu_tim_pwm_channels_init	40	static
mcu_config_ctry.c:334:20:MCU_CAN_Interface_Init	8	static
mcu_config_ctry.c:352:13:mcu_gpio_pins_init_ctry	32	static
mcu_config_ctry.c:602:13:debug_uart_usart3_init	32	static
