vibration_meas.c:175:9:Get_Last_Acceleration_Val	4	static
vibration_meas.c:191:22:Perform_Acceleration_Monitoring	24	static
vibration_meas.c:224:19:Read_Max_Acceleration_Value	72	static
vibration_meas.c:258:19:Init_Accelerometer	16	static
vibration_meas.c:278:19:Get_Axis_Z_Acceleration	24	static
vibration_meas.c:313:19:Check_Accelerometer_ID	16	static
vibration_meas.c:343:26:accel_write_reg_bit	24	static
vibration_meas.c:376:26:accel_write_reg	32	static
vibration_meas.c:394:26:accel_read_reg	32	static
