gipsy_hal_rtc.c:239:19:RTC_StartUp_Initialization	16	static
gipsy_hal_rtc.c:274:19:RTC_SetDateTime	32	static
gipsy_hal_rtc.c:328:6:RTC_GetDateTime	24	static
gipsy_hal_rtc.c:363:26:hal_rtc_init	24	static
gipsy_hal_rtc.c:428:26:hal_rtc_set_time	24	static
gipsy_hal_rtc.c:496:26:hal_rtc_set_date	24	static
gipsy_hal_rtc.c:560:26:hal_rtc_wait_for_synchro	24	static
gipsy_hal_rtc.c:591:26:rtc_enter_init_mode	24	static
gipsy_hal_rtc.c:626:16:rtc_byte_to_bcd2	24	static
gipsy_hal_rtc.c:647:16:rtc_bcd2_to_byte	24	static
gipsy_hal_rtc.c:683:16:get_weekday_from_date	24	static
gipsy_hal_rtc.c:743:6:RTC_BKUP_Reg_Write	24	static
gipsy_hal_rtc.c:768:10:RTC_BKUP_Reg_Read	24	static
