motor_driver.c:172:6:MDRV_Wake_All	8	static
motor_driver.c:187:6:MDRV_Config_All	16	static
motor_driver.c:212:6:MDRV_Shut_Down	24	static
motor_driver.c:243:6:MDRV_Activate_Motor	16	static
motor_driver.c:258:9:MDRV_ID_Check	24	static
motor_driver.c:286:13:mdrv_set_pwm_value	16	static
motor_driver.c:308:6:MDRV_SPI_Write	24	static
motor_driver.c:362:7:MDRV_SPI_Read	32	static
motor_driver.c:417:14:mdrv_set_spi_clk	16	static
motor_driver.c:429:14:mdrv_spi_delay	8	static
motor_driver.c:442:13:mdrv_set_cs_pin	24	static
motor_driver.c:472:6:MDRV_Wake_Ctrl	24	static
motor_driver.c:499:6:MDRV_Enable_Ctrl	24	static
